…
## Rows: 60 Columns: 3

## -- Column specification --------------------------------------------------------
## Delimiter: ","
## chr (3): name, number_of_cats, handedness

## 
## i Use `spec()` to retrieve the full column specification for this data.
## i Specify the column types or set `show_col_types = FALSE` to quiet this message.

cat_lovers

## # A tibble: 60 x 3
##    name           number_of_cats handedness
##    <chr>          <chr>          <chr>     
##  1 Bernice Warren 0              left      
##  2 Woodrow Stone  0              left      
##  3 Willie Bass    1              left      
##  4 Tyrone Estrada 3              left      
##  5 Alex Daniels   3              left      
##  6 Jane Bates     2              left      
##  7 Latoya Simpson 1              left      
##  8 Darin Woods    1              left      
##  9 Agnes Cobb     0              left      
## 10 Tabitha Grant  0              left      
## # ... with 50 more rows
…
