…
df <- professorproposes %>%
  as_tibble() %>%
  print()

## # A tibble: 441 x 9
##    Carat Colour Clarity Cut   Certification Polish Symmetry Price  Wholesaler
##    <dbl> <chr>  <chr>   <chr> <chr>         <chr>  <chr>    <chr>       <dbl>
##  1  0.92 I      SI2     G     AGS           V      V        $3,000          1
##  2  0.92 I      SI2     V     AGS           G      G        $3,000          1
##  3  0.82 F      SI2     I     GIA           X      X        $3,004          1
##  4  0.81 G      SI1     I     GIA           X      V        $3,004          1
##  5  0.9  J      VS2     V     GIA           V      V        $3,006          1
##  6  0.87 F      SI2     I     AGS           G      V        $3,007          1
##  7  0.8  D      SI2     I     GIA           V      V        $3,008          1
##  8  0.84 F      SI1     G     GIA           V      V        $3,010          1
##  9  0.8  D      SI2     V     GIA           V      V        $3,012          1
## 10  0.8  D      SI2     V     GIA           V      X        $3,012          1
## # ... with 431 more rows
…
