…
## Rows: 935 Columns: 26

## -- Column specification --------------------------------------------------------
## Delimiter: ","
## chr  (21): firstname, surname, category, affiliation, city, country, gender,...
## dbl   (3): id, year, share
## date  (2): born_date, died_date

## 
## i Use `spec()` to retrieve the full column specification for this data.
## i Specify the column types or set `show_col_types = FALSE` to quiet this message.

nobel

## # A tibble: 935 x 26
##       id firstname   surname  year category affiliation city  country born_date 
##    <dbl> <chr>       <chr>   <dbl> <chr>    <chr>       <chr> <chr>   <date>    
##  1     1 Wilhelm Co~ Röntgen  1901 Physics  Munich Uni~ Muni~ Germany 1845-03-27
##  2     2 Hendrik A.  Lorentz  1902 Physics  Leiden Uni~ Leid~ Nether~ 1853-07-18
##  3     3 Pieter      Zeeman   1902 Physics  Amsterdam ~ Amst~ Nether~ 1865-05-25
##  4     4 Henri       Becque~  1903 Physics  École Poly~ Paris France  1852-12-15
##  5     5 Pierre      Curie    1903 Physics  École muni~ Paris France  1859-05-15
##  6     6 Marie       Curie    1903 Physics  <NA>        <NA>  <NA>    1867-11-07
##  7     6 Marie       Curie    1911 Chemist~ Sorbonne U~ Paris France  1867-11-07
##  8     8 Lord        Raylei~  1904 Physics  Royal Inst~ Lond~ United~ 1842-11-12
##  9     9 Philipp     Lenard   1905 Physics  Kiel Unive~ Kiel  Germany 1862-06-07
## 10    10 J.J.        Thomson  1906 Physics  University~ Camb~ United~ 1856-12-18
## # ... with 925 more rows, and 17 more variables: died_date <date>,
## #   gender <chr>, born_city <chr>, born_country <chr>, born_country_code <chr>,
## #   died_city <chr>, died_country <chr>, died_country_code <chr>,
## #   overall_motivation <chr>, share <dbl>, motivation <chr>,
## #   born_country_original <chr>, born_city_original <chr>,
## #   died_country_original <chr>, died_city_original <chr>, city_original <chr>,
## #   country_original <chr>
…
## Rows: 935 Columns: 26

## -- Column specification --------------------------------------------------------
## Delimiter: ","
## chr  (21): firstname, surname, category, affiliation, city, country, gender,...
## dbl   (3): id, year, share
## date  (2): born_date, died_date

## 
## i Use `spec()` to retrieve the full column specification for this data.
## i Specify the column types or set `show_col_types = FALSE` to quiet this message.

nobel

## # A tibble: 935 x 26
##       id firstname   surname  year category affiliation city  country born_date 
##    <dbl> <chr>       <chr>   <dbl> <chr>    <chr>       <chr> <chr>   <date>    
##  1     1 Wilhelm Co~ Röntgen  1901 Physics  Munich Uni~ Muni~ Germany 1845-03-27
##  2     2 Hendrik A.  Lorentz  1902 Physics  Leiden Uni~ Leid~ Nether~ 1853-07-18
##  3     3 Pieter      Zeeman   1902 Physics  Amsterdam ~ Amst~ Nether~ 1865-05-25
##  4     4 Henri       Becque~  1903 Physics  École Poly~ Paris France  1852-12-15
##  5     5 Pierre      Curie    1903 Physics  École muni~ Paris France  1859-05-15
##  6     6 Marie       Curie    1903 Physics  <NA>        <NA>  <NA>    1867-11-07
##  7     6 Marie       Curie    1911 Chemist~ Sorbonne U~ Paris France  1867-11-07
##  8     8 Lord        Raylei~  1904 Physics  Royal Inst~ Lond~ United~ 1842-11-12
##  9     9 Philipp     Lenard   1905 Physics  Kiel Unive~ Kiel  Germany 1862-06-07
## 10    10 J.J.        Thomson  1906 Physics  University~ Camb~ United~ 1856-12-18
## # ... with 925 more rows, and 17 more variables: died_date <date>,
## #   gender <chr>, born_city <chr>, born_country <chr>, born_country_code <chr>,
## #   died_city <chr>, died_country <chr>, died_country_code <chr>,
## #   overall_motivation <chr>, share <dbl>, motivation <chr>,
## #   born_country_original <chr>, born_city_original <chr>,
## #   died_country_original <chr>, died_city_original <chr>, city_original <chr>,
## #   country_original <chr>
…
## Rows: 13245 Columns: 10

## -- Column specification --------------------------------------------------------
## Delimiter: ","
## chr (2): neighbourhood, listing_url
## dbl (8): ID, Price, accommodates, Number of bathrooms, Number of Bedrooms, n...

## 
## i Use `spec()` to retrieve the full column specification for this data.
## i Specify the column types or set `show_col_types = FALSE` to quiet this message.

edibnb_badnames

## # A tibble: 13,245 x 10
##       ID Price neighbourhood accommodates `Number of bathrooms` `Number of Bed~`
##    <dbl> <dbl> <chr>                <dbl>                 <dbl>            <dbl>
##  1 15420    80 New Town                 2                   1                  1
##  2 24288   115 Southside                4                   1.5                2
##  3 38628    46 <NA>                     2                   1                  0
##  4 44552    32 Leith                    2                   1                  1
##  5 47616   100 Southside                2                   1                  1
##  6 48645    71 Old Town                 3                   1                  1
##  7 51505   175 New Town                 5                   1                  2
##  8 54188   150 West End                 5                   1                  3
##  9 55881   139 Leith                    6                   1                  4
## 10 58682   190 West End                10                   2                  4
## # ... with 13,235 more rows, and 4 more variables: `n beds` <dbl>,
## #   `Review Scores Rating` <dbl>, `Number of reviews` <dbl>, listing_url <chr>
…
